{
  "send": "M2.5125 26.25L28.75 15L2.5125 3.75L2.5 12.5L21.25 15L2.5 17.5L2.5125 26.25Z",
  "plus": "M7.954 15.008C7.61267 15.008 7.32467 14.8907 7.09 14.656C6.85533 14.4213 6.738 14.1227 6.738 13.76V8.736H1.714C1.37267 8.736 1.08467 8.61867 0.85 8.384C0.615333 8.14933 0.498 7.85067 0.498 7.488C0.498 7.14667 0.615333 6.85867 0.85 6.624C1.08467 6.368 1.37267 6.24 1.714 6.24H6.738V1.216C6.738 0.874666 6.85533 0.586665 7.09 0.351999C7.32467 0.117333 7.61267 0 7.954 0C8.31667 0 8.61533 0.117333 8.85 0.351999C9.08467 0.586665 9.202 0.874666 9.202 1.216V6.24H14.226C14.5673 6.24 14.8553 6.368 15.09 6.624C15.346 6.85867 15.474 7.14667 15.474 7.488C15.474 7.85067 15.346 8.14933 15.09 8.384C14.8553 8.61867 14.5673 8.736 14.226 8.736H9.202V13.76C9.202 14.1227 9.08467 14.4213 8.85 14.656C8.61533 14.8907 8.31667 15.008 7.954 15.008Z",
  "mail": "M25 5H5C3.625 5 2.5125 6.125 2.5125 7.5L2.5 22.5C2.5 23.875 3.625 25 5 25H25C26.375 25 27.5 23.875 27.5 22.5V7.5C27.5 6.125 26.375 5 25 5ZM25 22.5H5V10L15 16.25L25 10V22.5ZM15 13.75L5 7.5H25L15 13.75Z",
  "file": [
    "M18.75 16.875V2.5H7.1875C6.93886 2.5 6.7004 2.59877 6.52459 2.77459C6.34877 2.9504 6.25 3.18886 6.25 3.4375V36.5625C6.25 36.8111 6.34877 37.0496 6.52459 37.2254C6.7004 37.4012 6.93886 37.5 7.1875 37.5H32.8125C33.0611 37.5 33.2996 37.4012 33.4754 37.2254C33.6512 37.0496 33.75 36.8111 33.75 36.5625V17.5H19.375C19.2092 17.5 19.0503 17.4342 18.9331 17.3169C18.8158 17.1997 18.75 17.0408 18.75 16.875Z",
    "M21.25 3.25696V14.6874C21.25 14.7703 21.2829 14.8498 21.3415 14.9084C21.4001 14.967 21.4796 14.9999 21.5625 14.9999H32.993C33.0239 15 33.054 14.9908 33.0797 14.9737C33.1054 14.9566 33.1255 14.9322 33.1373 14.9037C33.1492 14.8752 33.1524 14.8439 33.1464 14.8136C33.1405 14.7833 33.1257 14.7554 33.1039 14.7335L21.5164 3.14602C21.4945 3.12426 21.4667 3.10946 21.4364 3.10351C21.4061 3.09757 21.3747 3.10072 21.3462 3.11259C21.3177 3.12446 21.2933 3.14451 21.2762 3.1702C21.2591 3.1959 21.25 3.22609 21.25 3.25696Z"
  ],
  "document": "M15 0H3C1.35 0 0.0150003 1.35 0.0150003 3L0 27C0 28.65 1.335 30 2.985 30H21C22.65 30 24 28.65 24 27V9L15 0ZM18 24H6V21H18V24ZM18 18H6V15H18V18ZM13.5 10.5V2.25L21.75 10.5H13.5Z",
  "cross": "M30 0C13.4582 0 0 13.4582 0 30C0 46.5418 13.4582 60 30 60C46.5418 60 60 46.5418 60 30C60 13.4582 46.5418 0 30 0ZM40.862 37.5995C41.0853 37.8117 41.2639 38.0664 41.3872 38.3487C41.5105 38.6309 41.5761 38.935 41.58 39.243C41.584 39.551 41.5262 39.8567 41.4102 40.142C41.2941 40.4273 41.1221 40.6865 40.9043 40.9043C40.6865 41.1221 40.4273 41.2941 40.142 41.4102C39.8567 41.5262 39.551 41.584 39.243 41.58C38.935 41.5761 38.6309 41.5105 38.3487 41.3872C38.0664 41.2639 37.8117 41.0853 37.5995 40.862L30 33.2639L22.4005 40.862C21.9642 41.2765 21.3832 41.5042 20.7815 41.4965C20.1797 41.4888 19.6048 41.2463 19.1792 40.8208C18.7537 40.3952 18.5112 39.8203 18.5035 39.2185C18.4958 38.6168 18.7235 38.0358 19.138 37.5995L26.7361 30L19.138 22.4005C18.7235 21.9642 18.4958 21.3832 18.5035 20.7815C18.5112 20.1797 18.7537 19.6048 19.1792 19.1792C19.6048 18.7537 20.1797 18.5112 20.7815 18.5035C21.3832 18.4958 21.9642 18.7235 22.4005 19.138L30 26.7361L37.5995 19.138C38.0358 18.7235 38.6168 18.4958 39.2185 18.5035C39.8203 18.5112 40.3952 18.7537 40.8208 19.1792C41.2463 19.6048 41.4888 20.1797 41.4965 20.7815C41.5042 21.3832 41.2765 21.9642 40.862 22.4005L33.2639 30L40.862 37.5995Z",
  "menu-burger": "M4,18h16c0.55,0,1-0.45,1-1l0,0c0-0.55-0.45-1-1-1H4c-0.55,0-1,0.45-1,1l0,0C3,17.55,3.45,18,4,18z M4,13h16 c0.55,0,1-0.45,1-1l0,0c0-0.55-0.45-1-1-1H4c-0.55,0-1,0.45-1,1l0,0C3,12.55,3.45,13,4,13z M3,7L3,7c0,0.55,0.45,1,1,1h16 c0.55,0,1-0.45,1-1l0,0c0-0.55-0.45-1-1-1H4C3.45,6,3,6.45,3,7z",
  "check-mark": "M40 0C17.9442 0 0 17.9442 0 40C0 62.0558 17.9442 80 40 80C62.0558 80 80 62.0558 80 40C80 17.9442 62.0558 0 40 0ZM60.8173 26.5942L34.9712 57.3635C34.6876 57.7012 34.3349 57.974 33.9367 58.1634C33.5386 58.3529 33.1043 58.4545 32.6635 58.4615H32.6115C32.1803 58.4614 31.7538 58.3706 31.3599 58.195C30.966 58.0194 30.6134 57.763 30.325 57.4423L19.2481 45.1346C18.9668 44.8362 18.7479 44.4846 18.6044 44.1005C18.4609 43.7163 18.3957 43.3074 18.4125 42.8977C18.4293 42.4879 18.5279 42.0857 18.7024 41.7146C18.8769 41.3435 19.1238 41.011 19.4286 40.7367C19.7334 40.4624 20.09 40.2518 20.4774 40.1172C20.8648 39.9827 21.2751 39.9269 21.6844 39.9533C22.0936 39.9796 22.4934 40.0874 22.8604 40.2705C23.2273 40.4536 23.554 40.7081 23.8212 41.0192L32.5308 50.6962L56.1058 22.6365C56.6346 22.0252 57.3827 21.6464 58.1885 21.5822C58.9943 21.518 59.793 21.7735 60.412 22.2934C61.031 22.8133 61.4205 23.5559 61.4963 24.3607C61.5721 25.1655 61.3282 25.9678 60.8173 26.5942Z",
  "people-outline": "M16.5 13C15.3 13 13.43 13.34 12 14C10.57 13.33 8.7 13 7.5 13C5.33 13 1 14.08 1 16.25V19H23V16.25C23 14.08 18.67 13 16.5 13ZM12.5 17.5H2.5V16.25C2.5 15.71 5.06 14.5 7.5 14.5C9.94 14.5 12.5 15.71 12.5 16.25V17.5ZM21.5 17.5H14V16.25C14 15.79 13.8 15.39 13.48 15.03C14.36 14.73 15.44 14.5 16.5 14.5C18.94 14.5 21.5 15.71 21.5 16.25V17.5ZM7.5 12C9.43 12 11 10.43 11 8.5C11 6.57 9.43 5 7.5 5C5.57 5 4 6.57 4 8.5C4 10.43 5.57 12 7.5 12ZM7.5 6.5C8.6 6.5 9.5 7.4 9.5 8.5C9.5 9.6 8.6 10.5 7.5 10.5C6.4 10.5 5.5 9.6 5.5 8.5C5.5 7.4 6.4 6.5 7.5 6.5ZM16.5 12C18.43 12 20 10.43 20 8.5C20 6.57 18.43 5 16.5 5C14.57 5 13 6.57 13 8.5C13 10.43 14.57 12 16.5 12ZM16.5 6.5C17.6 6.5 18.5 7.4 18.5 8.5C18.5 9.6 17.6 10.5 16.5 10.5C15.4 10.5 14.5 9.6 14.5 8.5C14.5 7.4 15.4 6.5 16.5 6.5Z"
}
